%YAML 1.1
%TAG !u! tag:unity3d.com,2011:
--- !u!114 &3643012554631194676
MonoBehaviour:
  m_ObjectHideFlags: 0
  m_CorrespondingSourceObject: {fileID: 0}
  m_PrefabInstance: {fileID: 0}
  m_PrefabAsset: {fileID: 0}
  m_GameObject: {fileID: 8824864046544301936}
  m_Enabled: 1
  m_EditorHideFlags: 0
  m_Script: {fileID: 11500000, guid: fa7155796051b734daa718462081dc5f, type: 3}
  m_Name: 
  m_EditorClassIdentifier: 
  m_BindingMode: 1
  m_FollowOffset: {x: 0, y: 7, z: -15}
  m_XDamping: 0.01
  m_YDamping: 0.01
  m_ZDamping: 0.01
  m_AngularDampingMode: 0
  m_PitchDamping: 0
  m_YawDamping: 0
  m_RollDamping: 0
  m_AngularDamping: 0
--- !u!1001 &2868225859702997125
PrefabInstance:
  m_ObjectHideFlags: 0
  serializedVersion: 2
  m_Modification:
    m_TransformParent: {fileID: 0}
    m_Modifications:
    - target: {fileID: 6752526559213285367, guid: 9d23ca6867e56426d94b36d639764f7f, type: 3}
      propertyPath: m_ZDamping
      value: 10
      objectReference: {fileID: 0}
    - target: {fileID: 6752526559213285367, guid: 9d23ca6867e56426d94b36d639764f7f, type: 3}
      propertyPath: m_TrackedObjectOffset.y
      value: 0.42
      objectReference: {fileID: 0}
    - target: {fileID: 6752526559213285367, guid: 9d23ca6867e56426d94b36d639764f7f, type: 3}
      propertyPath: m_TrackedObjectOffset.z
      value: -1.63
      objectReference: {fileID: 0}
    - target: {fileID: 6752526559301753356, guid: 9d23ca6867e56426d94b36d639764f7f, type: 3}
      propertyPath: m_Name
      value: phil_Virtual Camera (1) Variant
      objectReference: {fileID: 0}
    - target: {fileID: 6752526559301753359, guid: 9d23ca6867e56426d94b36d639764f7f, type: 3}
      propertyPath: m_RootOrder
      value: 0
      objectReference: {fileID: 0}
    - target: {fileID: 6752526559301753359, guid: 9d23ca6867e56426d94b36d639764f7f, type: 3}
      propertyPath: m_LocalPosition.x
      value: 9.193356
      objectReference: {fileID: 0}
    - target: {fileID: 6752526559301753359, guid: 9d23ca6867e56426d94b36d639764f7f, type: 3}
      propertyPath: m_LocalPosition.y
      value: -8.211518
      objectReference: {fileID: 0}
    - target: {fileID: 6752526559301753359, guid: 9d23ca6867e56426d94b36d639764f7f, type: 3}
      propertyPath: m_LocalPosition.z
      value: -3.6531942
      objectReference: {fileID: 0}
    - target: {fileID: 6752526559301753359, guid: 9d23ca6867e56426d94b36d639764f7f, type: 3}
      propertyPath: m_LocalRotation.w
      value: 1
      objectReference: {fileID: 0}
    - target: {fileID: 6752526559301753359, guid: 9d23ca6867e56426d94b36d639764f7f, type: 3}
      propertyPath: m_LocalRotation.x
      value: 0
      objectReference: {fileID: 0}
    - target: {fileID: 6752526559301753359, guid: 9d23ca6867e56426d94b36d639764f7f, type: 3}
      propertyPath: m_LocalRotation.y
      value: 0
      objectReference: {fileID: 0}
    - target: {fileID: 6752526559301753359, guid: 9d23ca6867e56426d94b36d639764f7f, type: 3}
      propertyPath: m_LocalRotation.z
      value: 0
      objectReference: {fileID: 0}
    - target: {fileID: 6752526559301753359, guid: 9d23ca6867e56426d94b36d639764f7f, type: 3}
      propertyPath: m_LocalEulerAnglesHint.x
      value: 0
      objectReference: {fileID: 0}
    - target: {fileID: 6752526559301753359, guid: 9d23ca6867e56426d94b36d639764f7f, type: 3}
      propertyPath: m_LocalEulerAnglesHint.y
      value: 0
      objectReference: {fileID: 0}
    - target: {fileID: 6752526559301753359, guid: 9d23ca6867e56426d94b36d639764f7f, type: 3}
      propertyPath: m_LocalEulerAnglesHint.z
      value: 0
      objectReference: {fileID: 0}
    - target: {fileID: 6752526559504936604, guid: 9d23ca6867e56426d94b36d639764f7f, type: 3}
      propertyPath: m_LocalPosition.x
      value: 240.18665
      objectReference: {fileID: 0}
    - target: {fileID: 6752526559504936604, guid: 9d23ca6867e56426d94b36d639764f7f, type: 3}
      propertyPath: m_LocalPosition.y
      value: 303.81152
      objectReference: {fileID: 0}
    - target: {fileID: 6752526559504936604, guid: 9d23ca6867e56426d94b36d639764f7f, type: 3}
      propertyPath: m_LocalPosition.z
      value: 207.2232
      objectReference: {fileID: 0}
    - target: {fileID: 6752526559504936604, guid: 9d23ca6867e56426d94b36d639764f7f, type: 3}
      propertyPath: m_LocalRotation.w
      value: 0.9762641
      objectReference: {fileID: 0}
    - target: {fileID: 6752526559504936604, guid: 9d23ca6867e56426d94b36d639764f7f, type: 3}
      propertyPath: m_LocalRotation.x
      value: 0.21658356
      objectReference: {fileID: 0}
    - target: {fileID: 6752526559504936604, guid: 9d23ca6867e56426d94b36d639764f7f, type: 3}
      propertyPath: m_LocalRotation.y
      value: -0
      objectReference: {fileID: 0}
    - target: {fileID: 6752526559504936604, guid: 9d23ca6867e56426d94b36d639764f7f, type: 3}
      propertyPath: m_LocalRotation.z
      value: -0
      objectReference: {fileID: 0}
    - target: {fileID: 6752526559504936604, guid: 9d23ca6867e56426d94b36d639764f7f, type: 3}
      propertyPath: m_LocalEulerAnglesHint.x
      value: 14.71
      objectReference: {fileID: 0}
    - target: {fileID: 6752526559504936604, guid: 9d23ca6867e56426d94b36d639764f7f, type: 3}
      propertyPath: m_LocalEulerAnglesHint.y
      value: 1.146
      objectReference: {fileID: 0}
    - target: {fileID: 6752526559504936604, guid: 9d23ca6867e56426d94b36d639764f7f, type: 3}
      propertyPath: m_LocalEulerAnglesHint.z
      value: 0
      objectReference: {fileID: 0}
    - target: {fileID: 6752526559504936605, guid: 9d23ca6867e56426d94b36d639764f7f, type: 3}
      propertyPath: m_Follow
      value: 
      objectReference: {fileID: 0}
    - target: {fileID: 6752526559504936605, guid: 9d23ca6867e56426d94b36d639764f7f, type: 3}
      propertyPath: m_LookAt
      value: 
      objectReference: {fileID: 0}
    - target: {fileID: 6752526559504936605, guid: 9d23ca6867e56426d94b36d639764f7f, type: 3}
      propertyPath: m_Lens.FieldOfView
      value: 60
      objectReference: {fileID: 0}
    - target: {fileID: 6752526559504936605, guid: 9d23ca6867e56426d94b36d639764f7f, type: 3}
      propertyPath: m_Lens.FarClipPlane
      value: 5001.83
      objectReference: {fileID: 0}
    - target: {fileID: 6752526559504936605, guid: 9d23ca6867e56426d94b36d639764f7f, type: 3}
      propertyPath: m_Lens.NearClipPlane
      value: 6.2
      objectReference: {fileID: 0}
    - target: {fileID: 6752526560859502970, guid: 9d23ca6867e56426d94b36d639764f7f, type: 3}
      propertyPath: m_LocalPosition.x
      value: -8.193357
      objectReference: {fileID: 0}
    - target: {fileID: 6752526560859502970, guid: 9d23ca6867e56426d94b36d639764f7f, type: 3}
      propertyPath: m_LocalPosition.y
      value: 19.20673
      objectReference: {fileID: 0}
    - target: {fileID: 6752526560859502970, guid: 9d23ca6867e56426d94b36d639764f7f, type: 3}
      propertyPath: m_LocalPosition.z
      value: -104.26563
      objectReference: {fileID: 0}
    - target: {fileID: 6752526560859502970, guid: 9d23ca6867e56426d94b36d639764f7f, type: 3}
      propertyPath: m_LocalRotation.w
      value: 0.9921901
      objectReference: {fileID: 0}
    - target: {fileID: 6752526560859502970, guid: 9d23ca6867e56426d94b36d639764f7f, type: 3}
      propertyPath: m_LocalRotation.x
      value: 0.12473473
      objectReference: {fileID: 0}
    - target: {fileID: 6752526560859502970, guid: 9d23ca6867e56426d94b36d639764f7f, type: 3}
      propertyPath: m_LocalRotation.y
      value: 0.00000008359127
      objectReference: {fileID: 0}
    - target: {fileID: 6752526560859502970, guid: 9d23ca6867e56426d94b36d639764f7f, type: 3}
      propertyPath: m_LocalRotation.z
      value: -0.000000010508805
      objectReference: {fileID: 0}
    - target: {fileID: 6752526560859502971, guid: 9d23ca6867e56426d94b36d639764f7f, type: 3}
      propertyPath: field of view
      value: 90
      objectReference: {fileID: 0}
    - target: {fileID: 6752526560859502974, guid: 9d23ca6867e56426d94b36d639764f7f, type: 3}
      propertyPath: m_Enabled
      value: 1
      objectReference: {fileID: 0}
    - target: {fileID: 6752526560859502975, guid: 9d23ca6867e56426d94b36d639764f7f, type: 3}
      propertyPath: m_IsActive
      value: 0
      objectReference: {fileID: 0}
    m_RemovedComponents:
    - {fileID: 6752526559213285367, guid: 9d23ca6867e56426d94b36d639764f7f, type: 3}
  m_SourcePrefab: {fileID: 100100000, guid: 9d23ca6867e56426d94b36d639764f7f, type: 3}
--- !u!1 &8824864046544301936 stripped
GameObject:
  m_CorrespondingSourceObject: {fileID: 6752526559213285365, guid: 9d23ca6867e56426d94b36d639764f7f, type: 3}
  m_PrefabInstance: {fileID: 2868225859702997125}
  m_PrefabAsset: {fileID: 0}
