%YAML 1.1
%TAG !u! tag:unity3d.com,2011:
--- !u!1 &8782084295173682571
GameObject:
  m_ObjectHideFlags: 0
  m_CorrespondingSourceObject: {fileID: 0}
  m_PrefabInstance: {fileID: 0}
  m_PrefabAsset: {fileID: 0}
  serializedVersion: 6
  m_Component:
  - component: {fileID: 8782084295173682569}
  - component: {fileID: 8782084295173682568}
  m_Layer: 0
  m_Name: GameManager
  m_TagString: Untagged
  m_Icon: {fileID: 0}
  m_NavMeshLayer: 0
  m_StaticEditorFlags: 0
  m_IsActive: 1
--- !u!4 &8782084295173682569
Transform:
  m_ObjectHideFlags: 0
  m_CorrespondingSourceObject: {fileID: 0}
  m_PrefabInstance: {fileID: 0}
  m_PrefabAsset: {fileID: 0}
  m_GameObject: {fileID: 8782084295173682571}
  m_LocalRotation: {x: -0, y: -0, z: -0, w: 1}
  m_LocalPosition: {x: 0, y: 0, z: 49.5}
  m_LocalScale: {x: 37.23, y: 14.587, z: 6.3366}
  m_Children: []
  m_Father: {fileID: 0}
  m_RootOrder: 0
  m_LocalEulerAnglesHint: {x: 0, y: 0, z: 0}
--- !u!114 &8782084295173682568
MonoBehaviour:
  m_ObjectHideFlags: 0
  m_CorrespondingSourceObject: {fileID: 0}
  m_PrefabInstance: {fileID: 0}
  m_PrefabAsset: {fileID: 0}
  m_GameObject: {fileID: 8782084295173682571}
  m_Enabled: 1
  m_EditorHideFlags: 0
  m_Script: {fileID: 11500000, guid: 436dd318db95a7a4fa687d859d97a5e6, type: 3}
  m_Name: 
  m_EditorClassIdentifier: 
  loseTime: 0
  timeManager: {fileID: 0}
  player: {fileID: 0}
  lose: 0
  letter: {fileID: 0}
  letter2022: {fileID: 0}
  letter2023: {fileID: 0}
  letter2024: {fileID: 0}
  gameOverText: {fileID: 0}
  restartButton: {fileID: 0}
  startButton: {fileID: 0}
